AreaName, FirstYear, RepeatInterval
SOIK_1080_Freeman_Burn_&_surrounds_2017-05-22.shp,0,3
SOIK_1080_Mt_Forbes_wider_2017-05-20.shp,1,3
SOIK_1080_West_Cape_2017-05-20.shp,2,3
SOIK_1080_Wet_Jacket_Peninsulas_2017-05-22.shp,1,3
coastalctrl.img,5,2



